solid OpenSCAD_Model
  facet normal 0 0 1
    outer loop
      vertex -19.3725 7.14327 0
      vertex -21.0179 8.09327 0
      vertex -22.8725 1.08109 0
    endloop
  endfacet
  facet normal 0 0 1
    outer loop
      vertex -12.3725 -19.2676 0
      vertex -15.8725 -13.2054 0
      vertex -14.0179 -20.2176 0
    endloop
  endfacet
  facet normal 0 0 1
    outer loop
      vertex 10.5 -20.3487 0
      vertex 3.5 -20.3487 0
      vertex 10.5 -22.2487 0
    endloop
  endfacet
  facet normal 0 0 1
    outer loop
      vertex 22.8725 -1.08109 0
      vertex 19.3725 -7.14327 0
      vertex 21.0179 -8.09327 0
    endloop
  endfacet
  facet normal 0 0 1
    outer loop
      vertex 27.8 0 0
      vertex 17.5179 14.1554 0
      vertex 25.6906 -2.64661e-07 0
    endloop
  endfacet
  facet normal 0 0 1
    outer loop
      vertex 17.5179 14.1554 0
      vertex 14.0179 20.2176 0
      vertex 15.8725 13.2054 0
    endloop
  endfacet
  facet normal 0 0 1
    outer loop
      vertex 13.9 24.0755 0
      vertex 17.5179 14.1554 0
      vertex 27.8 0 0
    endloop
  endfacet
  facet normal 0 0 1
    outer loop
      vertex 17.5179 14.1554 0
      vertex 13.9 24.0755 0
      vertex 14.0179 20.2176 0
    endloop
  endfacet
  facet normal 0 0 1
    outer loop
      vertex 13.9 24.0755 0
      vertex 12.8453 22.2487 0
      vertex 14.0179 20.2176 0
    endloop
  endfacet
  facet normal 0 0 1
    outer loop
      vertex 13.9 24.0755 0
      vertex -3.5 22.2487 0
      vertex 12.8453 22.2487 0
    endloop
  endfacet
  facet normal 0 0 1
    outer loop
      vertex -3.5 22.2487 0
      vertex -10.5 22.2487 0
      vertex -3.5 20.3487 0
    endloop
  endfacet
  facet normal -0 0 1
    outer loop
      vertex -13.9 24.0755 0
      vertex -3.5 22.2487 0
      vertex 13.9 24.0755 0
    endloop
  endfacet
  facet normal 0 0 1
    outer loop
      vertex -3.5 22.2487 0
      vertex -13.9 24.0755 0
      vertex -10.5 22.2487 0
    endloop
  endfacet
  facet normal 0 0 1
    outer loop
      vertex -10.5 22.2487 0
      vertex -13.9 24.0755 0
      vertex -12.8453 22.2487 0
    endloop
  endfacet
  facet normal 0 0 1
    outer loop
      vertex -13.9 24.0755 0
      vertex -21.0179 8.09327 0
      vertex -12.8453 22.2487 0
    endloop
  endfacet
  facet normal 0 0 1
    outer loop
      vertex -21.0179 8.09327 0
      vertex -24.5179 2.03109 0
      vertex -22.8725 1.08109 0
    endloop
  endfacet
  facet normal 0 0 1
    outer loop
      vertex -27.8 0 0
      vertex -21.0179 8.09327 0
      vertex -13.9 24.0755 0
    endloop
  endfacet
  facet normal 0 0 1
    outer loop
      vertex -21.0179 8.09327 0
      vertex -27.8 0 0
      vertex -24.5179 2.03109 0
    endloop
  endfacet
  facet normal 0 0 1
    outer loop
      vertex -24.5179 2.03109 0
      vertex -27.8 0 0
      vertex -25.6906 2.64661e-07 0
    endloop
  endfacet
  facet normal 0 0 1
    outer loop
      vertex 24.5179 -2.03109 0
      vertex 27.8 0 0
      vertex 25.6906 -2.64661e-07 0
    endloop
  endfacet
  facet normal 0 0 1
    outer loop
      vertex 21.0179 -8.09327 0
      vertex 24.5179 -2.03109 0
      vertex 22.8725 -1.08109 0
    endloop
  endfacet
  facet normal 0 0 1
    outer loop
      vertex 21.0179 -8.09327 0
      vertex 27.8 0 0
      vertex 24.5179 -2.03109 0
    endloop
  endfacet
  facet normal -0 0 1
    outer loop
      vertex 21.0179 -8.09327 0
      vertex 13.9 -24.0755 0
      vertex 27.8 0 0
    endloop
  endfacet
  facet normal -0 0 1
    outer loop
      vertex 12.8453 -22.2487 0
      vertex 13.9 -24.0755 0
      vertex 21.0179 -8.09327 0
    endloop
  endfacet
  facet normal -0 0 1
    outer loop
      vertex 10.5 -22.2487 0
      vertex 13.9 -24.0755 0
      vertex 12.8453 -22.2487 0
    endloop
  endfacet
  facet normal 0 0 1
    outer loop
      vertex 3.5 -22.2487 0
      vertex 10.5 -22.2487 0
      vertex 3.5 -20.3487 0
    endloop
  endfacet
  facet normal 0 0 1
    outer loop
      vertex 10.5 -22.2487 0
      vertex 3.5 -22.2487 0
      vertex 13.9 -24.0755 0
    endloop
  endfacet
  facet normal 0 0 1
    outer loop
      vertex -13.9 -24.0755 0
      vertex 3.5 -22.2487 0
      vertex -12.8453 -22.2487 0
    endloop
  endfacet
  facet normal 0 0 1
    outer loop
      vertex 3.5 -22.2487 0
      vertex -13.9 -24.0755 0
      vertex 13.9 -24.0755 0
    endloop
  endfacet
  facet normal 0 0 1
    outer loop
      vertex -14.0179 -20.2176 0
      vertex -13.9 -24.0755 0
      vertex -12.8453 -22.2487 0
    endloop
  endfacet
  facet normal -0 0 1
    outer loop
      vertex -17.5179 -14.1554 0
      vertex -14.0179 -20.2176 0
      vertex -15.8725 -13.2054 0
    endloop
  endfacet
  facet normal 0 0 1
    outer loop
      vertex -14.0179 -20.2176 0
      vertex -17.5179 -14.1554 0
      vertex -13.9 -24.0755 0
    endloop
  endfacet
  facet normal -0 0 1
    outer loop
      vertex -27.8 0 0
      vertex -17.5179 -14.1554 0
      vertex -25.6906 2.64661e-07 0
    endloop
  endfacet
  facet normal 0 0 1
    outer loop
      vertex -17.5179 -14.1554 0
      vertex -27.8 0 0
      vertex -13.9 -24.0755 0
    endloop
  endfacet
  facet normal 0 0 1
    outer loop
      vertex 15.8725 13.2054 0
      vertex 14.0179 20.2176 0
      vertex 12.3725 19.2676 0
    endloop
  endfacet
  facet normal 0 0 1
    outer loop
      vertex -3.5 20.3487 0
      vertex -10.5 22.2487 0
      vertex -10.5 20.3487 0
    endloop
  endfacet
  facet normal 0.865715 -0.499821 -0.0267856
    outer loop
      vertex 21.1 -8.14064 3.5359
      vertex 12.8453 -22.2487 0
      vertex 21.0179 -8.09327 0
    endloop
  endfacet
  facet normal 0.865715 -0.499821 -0.0267852
    outer loop
      vertex 12.8453 -22.2487 0
      vertex 21.1 -8.14064 3.5359
      vertex 12.9 -22.3435 3.53591
    endloop
  endfacet
  facet normal 0.865715 -0.499821 -0.0267854
    outer loop
      vertex 25.8 -3.6404e-08 3.5359
      vertex 24.5179 -2.03109 0
      vertex 25.6906 -2.64661e-07 0
    endloop
  endfacet
  facet normal 0.865715 -0.49982 -0.0267856
    outer loop
      vertex 24.5179 -2.03109 0
      vertex 25.8 -3.6404e-08 3.5359
      vertex 24.6 -2.07846 3.5359
    endloop
  endfacet
  facet normal -9.74227e-08 0.98387 -0.178885
    outer loop
      vertex 12.9 22.3435 3.53589
      vertex 3.70664 22.3435 3.53591
      vertex 12.9 22.3435 3.5359
    endloop
  endfacet
  facet normal 1.62244e-07 0.999641 -0.0267852
    outer loop
      vertex 3.70664 22.3435 3.53591
      vertex 12.9 22.3435 3.53589
      vertex 12.8453 22.2487 0
    endloop
  endfacet
  facet normal -1.41255e-07 0.987441 -0.157991
    outer loop
      vertex -10.5 22.3435 3.53592
      vertex -12.9 22.3435 3.53591
      vertex -12.9 22.3435 3.53592
    endloop
  endfacet
  facet normal 0 0.999641 -0.0267856
    outer loop
      vertex -12.8453 22.2487 0
      vertex -10.5 22.3435 3.53592
      vertex -10.5 22.2487 0
    endloop
  endfacet
  facet normal -6.85348e-07 0.999641 -0.0267851
    outer loop
      vertex -10.5 22.3435 3.53592
      vertex -12.8453 22.2487 0
      vertex -12.9 22.3435 3.53591
    endloop
  endfacet
  facet normal 0 0.999641 -0.0267857
    outer loop
      vertex -3.5 22.2487 0
      vertex 3.70664 22.3435 3.53591
      vertex 12.8453 22.2487 0
    endloop
  endfacet
  facet normal -2.12677e-08 0.999641 -0.0267856
    outer loop
      vertex 3.70664 22.3435 3.53591
      vertex -3.5 22.2487 0
      vertex -3.5 22.3435 3.53591
    endloop
  endfacet
  facet normal 0.865715 0.499821 -0.0267853
    outer loop
      vertex 14.0179 20.2176 0
      vertex 12.8453 22.2487 0
      vertex 14.039 20.2298 0.907437
    endloop
  endfacet
  facet normal 0.865924 0.499942 -0.0152672
    outer loop
      vertex 25.8 -3.6404e-08 3.5359
      vertex 17.6 14.2028 3.53589
      vertex 25.8 0 3.5359
    endloop
  endfacet
  facet normal 0.865715 0.499821 -0.0267857
    outer loop
      vertex 17.6 14.2028 3.53589
      vertex 25.8 -3.6404e-08 3.5359
      vertex 17.5179 14.1554 0
    endloop
  endfacet
  facet normal 0.865715 0.499821 -0.0267855
    outer loop
      vertex 17.5179 14.1554 0
      vertex 25.8 -3.6404e-08 3.5359
      vertex 25.6906 -2.64661e-07 0
    endloop
  endfacet
  facet normal 0.865715 0.499821 -0.026785
    outer loop
      vertex 14.039 20.2298 0.907437
      vertex 12.9 22.3435 3.53589
      vertex 14.1 20.265 3.53589
    endloop
  endfacet
  facet normal 0.865715 0.499821 -0.0267851
    outer loop
      vertex 12.9 22.3435 3.53589
      vertex 14.039 20.2298 0.907437
      vertex 12.8453 22.2487 0
    endloop
  endfacet
  facet normal 9.74227e-08 -0.98387 -0.178885
    outer loop
      vertex -12.9 -22.3435 3.53589
      vertex -3.70664 -22.3435 3.53591
      vertex -12.9 -22.3435 3.5359
    endloop
  endfacet
  facet normal -1.62244e-07 -0.999641 -0.0267852
    outer loop
      vertex -3.70664 -22.3435 3.53591
      vertex -12.9 -22.3435 3.53589
      vertex -12.8453 -22.2487 0
    endloop
  endfacet
  facet normal 1.41255e-07 -0.987441 -0.157991
    outer loop
      vertex 10.5 -22.3435 3.53592
      vertex 12.9 -22.3435 3.53591
      vertex 12.9 -22.3435 3.53592
    endloop
  endfacet
  facet normal -0 -0.999641 -0.0267856
    outer loop
      vertex 12.8453 -22.2487 0
      vertex 10.5 -22.3435 3.53592
      vertex 10.5 -22.2487 0
    endloop
  endfacet
  facet normal 6.85348e-07 -0.999641 -0.0267851
    outer loop
      vertex 10.5 -22.3435 3.53592
      vertex 12.8453 -22.2487 0
      vertex 12.9 -22.3435 3.53591
    endloop
  endfacet
  facet normal -0 -0.999641 -0.0267857
    outer loop
      vertex 3.5 -22.2487 0
      vertex -3.70664 -22.3435 3.53591
      vertex -12.8453 -22.2487 0
    endloop
  endfacet
  facet normal 2.12677e-08 -0.999641 -0.0267856
    outer loop
      vertex -3.70664 -22.3435 3.53591
      vertex 3.5 -22.2487 0
      vertex 3.5 -22.3435 3.53591
    endloop
  endfacet
  facet normal -0.865715 -0.499821 -0.0267851
    outer loop
      vertex -12.8453 -22.2487 0
      vertex -14.1 -20.265 3.53589
      vertex -14.0179 -20.2176 0
    endloop
  endfacet
  facet normal -0.865715 -0.499821 -0.0267851
    outer loop
      vertex -14.1 -20.265 3.53589
      vertex -12.8453 -22.2487 0
      vertex -12.9 -22.3435 3.53589
    endloop
  endfacet
  facet normal -0.865715 -0.499821 -0.0267854
    outer loop
      vertex -17.5179 -14.1554 0
      vertex -21.2033 -7.96167 3.5359
      vertex -25.6906 2.64661e-07 0
    endloop
  endfacet
  facet normal -0.865715 -0.49982 -0.0267856
    outer loop
      vertex -21.2033 -7.96167 3.5359
      vertex -17.5179 -14.1554 0
      vertex -17.6 -14.2028 3.5359
    endloop
  endfacet
  facet normal -0.865715 0.499821 -0.0267852
    outer loop
      vertex -12.8453 22.2487 0
      vertex -21.1 8.14064 3.5359
      vertex -12.9 22.3435 3.53591
    endloop
  endfacet
  facet normal -0.865715 0.499821 -0.0267856
    outer loop
      vertex -21.1 8.14064 3.5359
      vertex -12.8453 22.2487 0
      vertex -21.0179 8.09327 0
    endloop
  endfacet
  facet normal -0.865715 0.49982 -0.0267856
    outer loop
      vertex -24.5179 2.03109 0
      vertex -25.8 3.28436e-07 3.5359
      vertex -24.6 2.07846 3.5359
    endloop
  endfacet
  facet normal -0.865715 0.499821 -0.0267855
    outer loop
      vertex -25.8 3.28436e-07 3.5359
      vertex -24.5179 2.03109 0
      vertex -25.6906 2.64661e-07 0
    endloop
  endfacet
  facet normal -0.865715 -0.499821 -0.0267854
    outer loop
      vertex -21.2033 -7.96167 3.5359
      vertex -25.8 3.28436e-07 3.5359
      vertex -25.6906 2.64661e-07 0
    endloop
  endfacet
  facet normal -0.865946 -0.499954 -0.0135043
    outer loop
      vertex -25.8 3.28436e-07 3.5359
      vertex -21.2033 -7.96167 3.5359
      vertex -25.8 0 3.53591
    endloop
  endfacet
  facet normal 0.5 0.866025 0
    outer loop
      vertex -22.8725 1.08109 3.8
      vertex -24.6 2.07846 3.5359
      vertex -24.6 2.07846 3.8
    endloop
  endfacet
  facet normal 0.5 0.866025 -0
    outer loop
      vertex -22.8725 1.08109 0
      vertex -24.6 2.07846 3.5359
      vertex -22.8725 1.08109 3.8
    endloop
  endfacet
  facet normal 0.5 0.866025 1.97948e-07
    outer loop
      vertex -24.6 2.07846 3.5359
      vertex -22.8725 1.08109 0
      vertex -24.5179 2.03109 0
    endloop
  endfacet
  facet normal -0.5 -0.866025 0
    outer loop
      vertex -21.1 8.14064 3.5359
      vertex -19.3725 7.14327 3.8
      vertex -21.1 8.14064 3.8
    endloop
  endfacet
  facet normal -0.5 -0.866025 -2.56342e-07
    outer loop
      vertex -19.3725 7.14327 0
      vertex -21.1 8.14064 3.5359
      vertex -21.0179 8.09327 0
    endloop
  endfacet
  facet normal -0.5 -0.866025 0
    outer loop
      vertex -21.1 8.14064 3.5359
      vertex -19.3725 7.14327 0
      vertex -19.3725 7.14327 3.8
    endloop
  endfacet
  facet normal -0.866025 0.5 0
    outer loop
      vertex -22.8725 1.08109 0
      vertex -19.3725 7.14327 3.8
      vertex -19.3725 7.14327 0
    endloop
  endfacet
  facet normal -0.866025 0.5 0
    outer loop
      vertex -19.3725 7.14327 3.8
      vertex -22.8725 1.08109 0
      vertex -22.8725 1.08109 3.8
    endloop
  endfacet
  facet normal -0.5 0.866025 0
    outer loop
      vertex -12.3725 -19.2676 3.8
      vertex -14.1 -20.265 3.53589
      vertex -14.1 -20.265 3.8
    endloop
  endfacet
  facet normal -0.5 0.866025 0
    outer loop
      vertex -12.3725 -19.2676 0
      vertex -14.1 -20.265 3.53589
      vertex -12.3725 -19.2676 3.8
    endloop
  endfacet
  facet normal -0.5 0.866025 -2.18406e-07
    outer loop
      vertex -14.1 -20.265 3.53589
      vertex -12.3725 -19.2676 0
      vertex -14.0179 -20.2176 0
    endloop
  endfacet
  facet normal 0.5 -0.866026 0
    outer loop
      vertex -17.6 -14.2028 3.5359
      vertex -15.8725 -13.2054 3.8
      vertex -17.6 -14.2028 3.8
    endloop
  endfacet
  facet normal 0.5 -0.866025 2.49618e-07
    outer loop
      vertex -15.8725 -13.2054 0
      vertex -17.6 -14.2028 3.5359
      vertex -17.5179 -14.1554 0
    endloop
  endfacet
  facet normal 0.5 -0.866026 0
    outer loop
      vertex -17.6 -14.2028 3.5359
      vertex -15.8725 -13.2054 0
      vertex -15.8725 -13.2054 3.8
    endloop
  endfacet
  facet normal -0.866025 -0.5 0
    outer loop
      vertex -12.3725 -19.2676 0
      vertex -15.8725 -13.2054 3.8
      vertex -15.8725 -13.2054 0
    endloop
  endfacet
  facet normal -0.866025 -0.5 0
    outer loop
      vertex -15.8725 -13.2054 3.8
      vertex -12.3725 -19.2676 0
      vertex -12.3725 -19.2676 3.8
    endloop
  endfacet
  facet normal -1 0 0
    outer loop
      vertex 10.5 -22.3435 3.53592
      vertex 10.5 -20.3487 0
      vertex 10.5 -22.2487 0
    endloop
  endfacet
  facet normal -1 0 0
    outer loop
      vertex 10.5 -20.3487 0
      vertex 10.5 -22.3435 3.53592
      vertex 10.5 -20.3487 3.8
    endloop
  endfacet
  facet normal -1 -0 0
    outer loop
      vertex 10.5 -20.3487 3.8
      vertex 10.5 -22.3435 3.53592
      vertex 10.5 -22.3435 3.8
    endloop
  endfacet
  facet normal 1 -0 0
    outer loop
      vertex 3.5 -22.3435 3.53591
      vertex 3.5 -20.3487 0
      vertex 3.5 -20.3487 3.8
    endloop
  endfacet
  facet normal 1 0 0
    outer loop
      vertex 3.5 -22.3435 3.53591
      vertex 3.5 -20.3487 3.8
      vertex 3.5 -22.3435 3.8
    endloop
  endfacet
  facet normal 1 0 0
    outer loop
      vertex 3.5 -20.3487 0
      vertex 3.5 -22.3435 3.53591
      vertex 3.5 -22.2487 0
    endloop
  endfacet
  facet normal 0 -1 0
    outer loop
      vertex 3.5 -20.3487 0
      vertex 10.5 -20.3487 3.8
      vertex 3.5 -20.3487 3.8
    endloop
  endfacet
  facet normal 0 -1 -0
    outer loop
      vertex 10.5 -20.3487 3.8
      vertex 3.5 -20.3487 0
      vertex 10.5 -20.3487 0
    endloop
  endfacet
  facet normal -0.5 -0.866025 0
    outer loop
      vertex 22.8725 -1.08109 3.8
      vertex 24.6 -2.07846 3.5359
      vertex 24.6 -2.07846 3.8
    endloop
  endfacet
  facet normal -0.5 -0.866025 0
    outer loop
      vertex 22.8725 -1.08109 0
      vertex 24.6 -2.07846 3.5359
      vertex 22.8725 -1.08109 3.8
    endloop
  endfacet
  facet normal -0.5 -0.866025 1.97948e-07
    outer loop
      vertex 24.6 -2.07846 3.5359
      vertex 22.8725 -1.08109 0
      vertex 24.5179 -2.03109 0
    endloop
  endfacet
  facet normal 0.5 0.866025 -0
    outer loop
      vertex 21.1 -8.14064 3.5359
      vertex 19.3725 -7.14327 3.8
      vertex 21.1 -8.14064 3.8
    endloop
  endfacet
  facet normal 0.5 0.866025 -2.56342e-07
    outer loop
      vertex 19.3725 -7.14327 0
      vertex 21.1 -8.14064 3.5359
      vertex 21.0179 -8.09327 0
    endloop
  endfacet
  facet normal 0.5 0.866025 0
    outer loop
      vertex 21.1 -8.14064 3.5359
      vertex 19.3725 -7.14327 0
      vertex 19.3725 -7.14327 3.8
    endloop
  endfacet
  facet normal 0.866025 -0.5 0
    outer loop
      vertex 19.3725 -7.14327 3.8
      vertex 22.8725 -1.08109 0
      vertex 22.8725 -1.08109 3.8
    endloop
  endfacet
  facet normal 0.866025 -0.5 0
    outer loop
      vertex 22.8725 -1.08109 0
      vertex 19.3725 -7.14327 3.8
      vertex 19.3725 -7.14327 0
    endloop
  endfacet
  facet normal 0.5 -0.866025 0
    outer loop
      vertex 12.3725 19.2676 3.8
      vertex 14.1 20.265 3.53589
      vertex 14.1 20.265 3.8
    endloop
  endfacet
  facet normal 0.5 -0.866025 -3.13447e-07
    outer loop
      vertex 12.3725 19.2676 3.8
      vertex 14.039 20.2298 0.907437
      vertex 14.1 20.265 3.53589
    endloop
  endfacet
  facet normal 0.5 -0.866025 0
    outer loop
      vertex 12.3725 19.2676 0
      vertex 14.039 20.2298 0.907437
      vertex 12.3725 19.2676 3.8
    endloop
  endfacet
  facet normal 0.5 -0.866025 9.01534e-08
    outer loop
      vertex 14.039 20.2298 0.907437
      vertex 12.3725 19.2676 0
      vertex 14.0179 20.2176 0
    endloop
  endfacet
  facet normal -0.5 0.866026 0
    outer loop
      vertex 17.6 14.2028 3.53589
      vertex 15.8725 13.2054 3.8
      vertex 17.6 14.2028 3.8
    endloop
  endfacet
  facet normal -0.5 0.866025 2.49618e-07
    outer loop
      vertex 15.8725 13.2054 0
      vertex 17.6 14.2028 3.53589
      vertex 17.5179 14.1554 0
    endloop
  endfacet
  facet normal -0.5 0.866026 0
    outer loop
      vertex 17.6 14.2028 3.53589
      vertex 15.8725 13.2054 0
      vertex 15.8725 13.2054 3.8
    endloop
  endfacet
  facet normal 0.866025 0.5 0
    outer loop
      vertex 15.8725 13.2054 3.8
      vertex 12.3725 19.2676 0
      vertex 12.3725 19.2676 3.8
    endloop
  endfacet
  facet normal 0.866025 0.5 0
    outer loop
      vertex 12.3725 19.2676 0
      vertex 15.8725 13.2054 3.8
      vertex 15.8725 13.2054 0
    endloop
  endfacet
  facet normal 1 -0 0
    outer loop
      vertex -10.5 20.3487 3.8
      vertex -10.5 22.3435 3.53592
      vertex -10.5 22.3435 3.8
    endloop
  endfacet
  facet normal 1 0 0
    outer loop
      vertex -10.5 20.3487 0
      vertex -10.5 22.3435 3.53592
      vertex -10.5 20.3487 3.8
    endloop
  endfacet
  facet normal 1 0 0
    outer loop
      vertex -10.5 22.3435 3.53592
      vertex -10.5 20.3487 0
      vertex -10.5 22.2487 0
    endloop
  endfacet
  facet normal -1 0 0
    outer loop
      vertex -3.5 20.3487 0
      vertex -3.5 22.3435 3.53591
      vertex -3.5 22.2487 0
    endloop
  endfacet
  facet normal -1 -0 0
    outer loop
      vertex -3.5 22.3435 3.53591
      vertex -3.5 20.3487 0
      vertex -3.5 20.3487 3.8
    endloop
  endfacet
  facet normal -1 0 0
    outer loop
      vertex -3.5 22.3435 3.53591
      vertex -3.5 20.3487 3.8
      vertex -3.5 22.3435 3.8
    endloop
  endfacet
  facet normal 0 1 -0
    outer loop
      vertex -3.5 20.3487 0
      vertex -10.5 20.3487 3.8
      vertex -3.5 20.3487 3.8
    endloop
  endfacet
  facet normal 0 1 0
    outer loop
      vertex -10.5 20.3487 3.8
      vertex -3.5 20.3487 0
      vertex -10.5 20.3487 0
    endloop
  endfacet
  facet normal 1 0 0
    outer loop
      vertex 12.9 22.3435 3.8
      vertex 12.9 22.3435 3.53589
      vertex 12.9 22.3435 3.5359
    endloop
  endfacet
  facet normal 0.866026 0.5 -3.61095e-06
    outer loop
      vertex 14.1 20.265 3.8
      vertex 12.9 22.3435 3.53589
      vertex 12.9 22.3435 3.8
    endloop
  endfacet
  facet normal 0.866025 0.5 0
    outer loop
      vertex 12.9 22.3435 3.53589
      vertex 14.1 20.265 3.8
      vertex 14.1 20.265 3.53589
    endloop
  endfacet
  facet normal 0.866025 0.5 0
    outer loop
      vertex 25.8 0 3.8
      vertex 17.6 14.2028 3.53589
      vertex 17.6 14.2028 3.8
    endloop
  endfacet
  facet normal 0.866025 0.5 0
    outer loop
      vertex 17.6 14.2028 3.53589
      vertex 25.8 0 3.8
      vertex 25.8 0 3.5359
    endloop
  endfacet
  facet normal -0.865947 0.499954 0.0135043
    outer loop
      vertex -25.8 0 3.53591
      vertex -24.6 2.07846 3.5359
      vertex -25.8 3.28436e-07 3.5359
    endloop
  endfacet
  facet normal -0.866026 0.5 0
    outer loop
      vertex -24.6 2.07846 3.5359
      vertex -25.8 0 3.53591
      vertex -24.6 2.07846 3.8
    endloop
  endfacet
  facet normal -0.866026 0.5 0
    outer loop
      vertex -24.6 2.07846 3.8
      vertex -25.8 0 3.53591
      vertex -25.8 0 3.8
    endloop
  endfacet
  facet normal -1 0 0
    outer loop
      vertex -12.9 22.3435 3.53591
      vertex -12.9 22.3435 3.8
      vertex -12.9 22.3435 3.53592
    endloop
  endfacet
  facet normal -0.866025 0.5 -3.61119e-06
    outer loop
      vertex -21.1 8.14064 3.5359
      vertex -12.9 22.3435 3.8
      vertex -12.9 22.3435 3.53591
    endloop
  endfacet
  facet normal -0.866025 0.5 0
    outer loop
      vertex -12.9 22.3435 3.8
      vertex -21.1 8.14064 3.5359
      vertex -21.1 8.14064 3.8
    endloop
  endfacet
  facet normal 0 1 0
    outer loop
      vertex -10.5 22.3435 3.8
      vertex -12.9 22.3435 3.53592
      vertex -12.9 22.3435 3.8
    endloop
  endfacet
  facet normal -0 1 0
    outer loop
      vertex -12.9 22.3435 3.53592
      vertex -10.5 22.3435 3.8
      vertex -10.5 22.3435 3.53592
    endloop
  endfacet
  facet normal 0 1 -0
    outer loop
      vertex 3.70664 22.3435 3.53591
      vertex -3.5 22.3435 3.8
      vertex 12.9 22.3435 3.8
    endloop
  endfacet
  facet normal 0 1 0
    outer loop
      vertex -3.5 22.3435 3.8
      vertex 3.70664 22.3435 3.53591
      vertex -3.5 22.3435 3.53591
    endloop
  endfacet
  facet normal -0 1 0
    outer loop
      vertex 3.70664 22.3435 3.53591
      vertex 12.9 22.3435 3.8
      vertex 12.9 22.3435 3.5359
    endloop
  endfacet
  facet normal -0.866025 -0.5 0
    outer loop
      vertex -21.2033 -7.96167 3.5359
      vertex -25.8 0 3.8
      vertex -25.8 0 3.53591
    endloop
  endfacet
  facet normal -0.866025 -0.5 -0
    outer loop
      vertex -17.6 -14.2028 3.8
      vertex -21.2033 -7.96167 3.5359
      vertex -17.6 -14.2028 3.5359
    endloop
  endfacet
  facet normal -0.866025 -0.5 -1.71781e-06
    outer loop
      vertex -21.2033 -7.96167 3.5359
      vertex -17.6 -14.2028 3.8
      vertex -25.8 0 3.8
    endloop
  endfacet
  facet normal -0.866025 -0.5 0
    outer loop
      vertex -12.9 -22.3435 3.53589
      vertex -14.1 -20.265 3.8
      vertex -14.1 -20.265 3.53589
    endloop
  endfacet
  facet normal -1 0 0
    outer loop
      vertex -12.9 -22.3435 3.8
      vertex -12.9 -22.3435 3.53589
      vertex -12.9 -22.3435 3.5359
    endloop
  endfacet
  facet normal -0.866026 -0.5 -3.61095e-06
    outer loop
      vertex -12.9 -22.3435 3.53589
      vertex -12.9 -22.3435 3.8
      vertex -14.1 -20.265 3.8
    endloop
  endfacet
  facet normal 0.866025 -0.5 0
    outer loop
      vertex 21.1 -8.14064 3.8
      vertex 12.9 -22.3435 3.53591
      vertex 21.1 -8.14064 3.5359
    endloop
  endfacet
  facet normal 0.866025 -0.5 -3.61119e-06
    outer loop
      vertex 12.9 -22.3435 3.8
      vertex 12.9 -22.3435 3.53591
      vertex 21.1 -8.14064 3.8
    endloop
  endfacet
  facet normal 1 0 0
    outer loop
      vertex 12.9 -22.3435 3.53591
      vertex 12.9 -22.3435 3.8
      vertex 12.9 -22.3435 3.53592
    endloop
  endfacet
  facet normal 0.866026 -0.5 0
    outer loop
      vertex 24.6 -2.07846 3.8
      vertex 25.8 0 3.5359
      vertex 25.8 0 3.8
    endloop
  endfacet
  facet normal 0.866026 -0.5 0
    outer loop
      vertex 24.6 -2.07846 3.5359
      vertex 25.8 0 3.5359
      vertex 24.6 -2.07846 3.8
    endloop
  endfacet
  facet normal 0.865925 -0.499941 0.0152672
    outer loop
      vertex 25.8 0 3.5359
      vertex 24.6 -2.07846 3.5359
      vertex 25.8 -3.6404e-08 3.5359
    endloop
  endfacet
  facet normal 0 -1 0
    outer loop
      vertex -3.70664 -22.3435 3.53591
      vertex 3.5 -22.3435 3.8
      vertex -12.9 -22.3435 3.8
    endloop
  endfacet
  facet normal 0 -1 -0
    outer loop
      vertex 3.5 -22.3435 3.8
      vertex -3.70664 -22.3435 3.53591
      vertex 3.5 -22.3435 3.53591
    endloop
  endfacet
  facet normal -0 -1 0
    outer loop
      vertex -3.70664 -22.3435 3.53591
      vertex -12.9 -22.3435 3.8
      vertex -12.9 -22.3435 3.5359
    endloop
  endfacet
  facet normal 0 -1 0
    outer loop
      vertex 10.5 -22.3435 3.8
      vertex 12.9 -22.3435 3.53592
      vertex 12.9 -22.3435 3.8
    endloop
  endfacet
  facet normal -0 -1 0
    outer loop
      vertex 12.9 -22.3435 3.53592
      vertex 10.5 -22.3435 3.8
      vertex 10.5 -22.3435 3.53592
    endloop
  endfacet
  facet normal 0.866025 0.5 0
    outer loop
      vertex 27.8 0 0
      vertex 13.9 24.0755 -4
      vertex 13.9 24.0755 0
    endloop
  endfacet
  facet normal 0.866025 0.5 0
    outer loop
      vertex 13.9 24.0755 -4
      vertex 27.8 0 0
      vertex 27.8 0 -4
    endloop
  endfacet
  facet normal -0.866025 0.5 0
    outer loop
      vertex -27.8 0 -4
      vertex -13.9 24.0755 0
      vertex -13.9 24.0755 -4
    endloop
  endfacet
  facet normal -0.866025 0.5 0
    outer loop
      vertex -13.9 24.0755 0
      vertex -27.8 0 -4
      vertex -27.8 0 0
    endloop
  endfacet
  facet normal 0 1 -0
    outer loop
      vertex 13.9 24.0755 -4
      vertex -13.9 24.0755 0
      vertex 13.9 24.0755 0
    endloop
  endfacet
  facet normal 0 1 0
    outer loop
      vertex -13.9 24.0755 0
      vertex 13.9 24.0755 -4
      vertex -13.9 24.0755 -4
    endloop
  endfacet
  facet normal -0.866025 -0.5 0
    outer loop
      vertex -13.9 -24.0755 -4
      vertex -27.8 0 0
      vertex -27.8 0 -4
    endloop
  endfacet
  facet normal -0.866025 -0.5 0
    outer loop
      vertex -27.8 0 0
      vertex -13.9 -24.0755 -4
      vertex -13.9 -24.0755 0
    endloop
  endfacet
  facet normal 0 0 1
    outer loop
      vertex -10.5 22.3435 3.8
      vertex -12.9 22.3435 3.8
      vertex -10.5 20.3487 3.8
    endloop
  endfacet
  facet normal 0 0 1
    outer loop
      vertex 12.9 22.3435 3.8
      vertex 12.3725 19.2676 3.8
      vertex 14.1 20.265 3.8
    endloop
  endfacet
  facet normal 0 0 1
    outer loop
      vertex 12.9 22.3435 3.8
      vertex 10.1818 17.6354 3.8
      vertex 12.3725 19.2676 3.8
    endloop
  endfacet
  facet normal -0 0 1
    outer loop
      vertex -3.5 22.3435 3.8
      vertex 10.1818 17.6354 3.8
      vertex 12.9 22.3435 3.8
    endloop
  endfacet
  facet normal -0 0 1
    outer loop
      vertex -3.5 20.3487 3.8
      vertex 10.1818 17.6354 3.8
      vertex -3.5 22.3435 3.8
    endloop
  endfacet
  facet normal 0 0 1
    outer loop
      vertex -3.5 20.3487 3.8
      vertex -10.1818 17.6354 3.8
      vertex 10.1818 17.6354 3.8
    endloop
  endfacet
  facet normal -0 0 1
    outer loop
      vertex -10.5 20.3487 3.8
      vertex -10.1818 17.6354 3.8
      vertex -3.5 20.3487 3.8
    endloop
  endfacet
  facet normal 0 0 1
    outer loop
      vertex -12.9 22.3435 3.8
      vertex -10.1818 17.6354 3.8
      vertex -10.5 20.3487 3.8
    endloop
  endfacet
  facet normal 0 0 1
    outer loop
      vertex -21.1 8.14064 3.8
      vertex -10.1818 17.6354 3.8
      vertex -12.9 22.3435 3.8
    endloop
  endfacet
  facet normal -0 0 1
    outer loop
      vertex -19.3725 7.14327 3.8
      vertex -20.3636 0 3.8
      vertex -10.1818 17.6354 3.8
    endloop
  endfacet
  facet normal 0 -0 1
    outer loop
      vertex -20.3636 0 3.8
      vertex -19.3725 7.14327 3.8
      vertex -22.8725 1.08109 3.8
    endloop
  endfacet
  facet normal 0 0 1
    outer loop
      vertex 25.8 0 3.8
      vertex 22.8725 -1.08109 3.8
      vertex 24.6 -2.07846 3.8
    endloop
  endfacet
  facet normal 0 0 1
    outer loop
      vertex 25.8 0 3.8
      vertex 20.3636 0 3.8
      vertex 22.8725 -1.08109 3.8
    endloop
  endfacet
  facet normal 0 0 1
    outer loop
      vertex 17.6 14.2028 3.8
      vertex 20.3636 0 3.8
      vertex 25.8 0 3.8
    endloop
  endfacet
  facet normal -0 0 1
    outer loop
      vertex 15.8725 13.2054 3.8
      vertex 20.3636 0 3.8
      vertex 17.6 14.2028 3.8
    endloop
  endfacet
  facet normal -0 0 1
    outer loop
      vertex 10.1818 17.6354 3.8
      vertex 15.8725 13.2054 3.8
      vertex 12.3725 19.2676 3.8
    endloop
  endfacet
  facet normal 0 0 1
    outer loop
      vertex 15.8725 13.2054 3.8
      vertex 10.1818 17.6354 3.8
      vertex 20.3636 0 3.8
    endloop
  endfacet
  facet normal 0 0 1
    outer loop
      vertex 20.3636 0 3.8
      vertex 19.3725 -7.14327 3.8
      vertex 22.8725 -1.08109 3.8
    endloop
  endfacet
  facet normal 0 0 1
    outer loop
      vertex 10.1818 -17.6354 3.8
      vertex 19.3725 -7.14327 3.8
      vertex 20.3636 0 3.8
    endloop
  endfacet
  facet normal 0 0 1
    outer loop
      vertex 19.3725 -7.14327 3.8
      vertex 10.1818 -17.6354 3.8
      vertex 12.9 -22.3435 3.8
    endloop
  endfacet
  facet normal 0 0 1
    outer loop
      vertex 12.9 -22.3435 3.8
      vertex 10.1818 -17.6354 3.8
      vertex 10.5 -20.3487 3.8
    endloop
  endfacet
  facet normal 0 0 1
    outer loop
      vertex 10.1818 -17.6354 3.8
      vertex 3.5 -20.3487 3.8
      vertex 10.5 -20.3487 3.8
    endloop
  endfacet
  facet normal -0 0 1
    outer loop
      vertex -10.1818 -17.6354 3.8
      vertex 3.5 -20.3487 3.8
      vertex 10.1818 -17.6354 3.8
    endloop
  endfacet
  facet normal 0 0 1
    outer loop
      vertex -10.1818 -17.6354 3.8
      vertex 3.5 -22.3435 3.8
      vertex 3.5 -20.3487 3.8
    endloop
  endfacet
  facet normal 0 0 1
    outer loop
      vertex -12.9 -22.3435 3.8
      vertex -10.1818 -17.6354 3.8
      vertex -12.3725 -19.2676 3.8
    endloop
  endfacet
  facet normal 0 0 1
    outer loop
      vertex -10.1818 -17.6354 3.8
      vertex -12.9 -22.3435 3.8
      vertex 3.5 -22.3435 3.8
    endloop
  endfacet
  facet normal 0 -0 1
    outer loop
      vertex -12.9 -22.3435 3.8
      vertex -12.3725 -19.2676 3.8
      vertex -14.1 -20.265 3.8
    endloop
  endfacet
  facet normal 0 0 1
    outer loop
      vertex 21.1 -8.14064 3.8
      vertex 19.3725 -7.14327 3.8
      vertex 12.9 -22.3435 3.8
    endloop
  endfacet
  facet normal 0 0 1
    outer loop
      vertex 12.9 -22.3435 3.8
      vertex 10.5 -20.3487 3.8
      vertex 10.5 -22.3435 3.8
    endloop
  endfacet
  facet normal 0 0 1
    outer loop
      vertex -10.1818 17.6354 3.8
      vertex -21.1 8.14064 3.8
      vertex -19.3725 7.14327 3.8
    endloop
  endfacet
  facet normal 0 0 1
    outer loop
      vertex -10.1818 -17.6354 3.8
      vertex -15.8725 -13.2054 3.8
      vertex -12.3725 -19.2676 3.8
    endloop
  endfacet
  facet normal 0 0 1
    outer loop
      vertex -20.3636 0 3.8
      vertex -15.8725 -13.2054 3.8
      vertex -10.1818 -17.6354 3.8
    endloop
  endfacet
  facet normal 0 0 1
    outer loop
      vertex -20.3636 0 3.8
      vertex -17.6 -14.2028 3.8
      vertex -15.8725 -13.2054 3.8
    endloop
  endfacet
  facet normal 0 0 1
    outer loop
      vertex -25.8 0 3.8
      vertex -20.3636 0 3.8
      vertex -22.8725 1.08109 3.8
    endloop
  endfacet
  facet normal 0 0 1
    outer loop
      vertex -25.8 0 3.8
      vertex -22.8725 1.08109 3.8
      vertex -24.6 2.07846 3.8
    endloop
  endfacet
  facet normal 0 0 1
    outer loop
      vertex -20.3636 0 3.8
      vertex -25.8 0 3.8
      vertex -17.6 -14.2028 3.8
    endloop
  endfacet
  facet normal 0 0 -1
    outer loop
      vertex 13.9 -24.0755 -4
      vertex 13.9 24.0755 -4
      vertex 27.8 0 -4
    endloop
  endfacet
  facet normal 0 0 -1
    outer loop
      vertex -13.9 -24.0755 -4
      vertex 13.9 24.0755 -4
      vertex 13.9 -24.0755 -4
    endloop
  endfacet
  facet normal 0 0 -1
    outer loop
      vertex -13.9 -24.0755 -4
      vertex -13.9 24.0755 -4
      vertex 13.9 24.0755 -4
    endloop
  endfacet
  facet normal 0 -0 -1
    outer loop
      vertex -13.9 24.0755 -4
      vertex -13.9 -24.0755 -4
      vertex -27.8 0 -4
    endloop
  endfacet
  facet normal 0 -1 0
    outer loop
      vertex -13.9 -24.0755 -4
      vertex 13.9 -24.0755 0
      vertex -13.9 -24.0755 0
    endloop
  endfacet
  facet normal 0 -1 -0
    outer loop
      vertex 13.9 -24.0755 0
      vertex -13.9 -24.0755 -4
      vertex 13.9 -24.0755 -4
    endloop
  endfacet
  facet normal 0.866025 -0.5 0
    outer loop
      vertex 13.9 -24.0755 0
      vertex 27.8 0 -4
      vertex 27.8 0 0
    endloop
  endfacet
  facet normal 0.866025 -0.5 0
    outer loop
      vertex 27.8 0 -4
      vertex 13.9 -24.0755 0
      vertex 13.9 -24.0755 -4
    endloop
  endfacet
  facet normal -0.866025 -0.5 0
    outer loop
      vertex 20.3636 0 0
      vertex 10.1818 17.6354 3.8
      vertex 10.1818 17.6354 0
    endloop
  endfacet
  facet normal -0.866025 -0.5 0
    outer loop
      vertex 10.1818 17.6354 3.8
      vertex 20.3636 0 0
      vertex 20.3636 0 3.8
    endloop
  endfacet
  facet normal 0.866025 -0.5 0
    outer loop
      vertex -20.3636 0 3.8
      vertex -10.1818 17.6354 0
      vertex -10.1818 17.6354 3.8
    endloop
  endfacet
  facet normal 0.866025 -0.5 0
    outer loop
      vertex -10.1818 17.6354 0
      vertex -20.3636 0 3.8
      vertex -20.3636 0 0
    endloop
  endfacet
  facet normal 0 -1 0
    outer loop
      vertex -10.1818 17.6354 0
      vertex 10.1818 17.6354 3.8
      vertex -10.1818 17.6354 3.8
    endloop
  endfacet
  facet normal 0 -1 -0
    outer loop
      vertex 10.1818 17.6354 3.8
      vertex -10.1818 17.6354 0
      vertex 10.1818 17.6354 0
    endloop
  endfacet
  facet normal -0.866025 0.5 0
    outer loop
      vertex 10.1818 -17.6354 0
      vertex 20.3636 0 3.8
      vertex 20.3636 0 0
    endloop
  endfacet
  facet normal -0.866025 0.5 0
    outer loop
      vertex 20.3636 0 3.8
      vertex 10.1818 -17.6354 0
      vertex 10.1818 -17.6354 3.8
    endloop
  endfacet
  facet normal -0 0 1
    outer loop
      vertex 4.5359 2 0
      vertex 20.3636 0 0
      vertex 10.1818 17.6354 0
    endloop
  endfacet
  facet normal 0 0 1
    outer loop
      vertex 4.5359 -2 0
      vertex 20.3636 0 0
      vertex 5.6906 0 0
    endloop
  endfacet
  facet normal 0 0 1
    outer loop
      vertex 20.3636 0 0
      vertex 4.5359 2 0
      vertex 5.6906 0 0
    endloop
  endfacet
  facet normal 0 0 1
    outer loop
      vertex 10.1818 17.6354 0
      vertex 2.8453 4.9282 0
      vertex 4.5359 2 0
    endloop
  endfacet
  facet normal 0 0 1
    outer loop
      vertex 10.1818 17.6354 0
      vertex -2.8453 4.9282 0
      vertex 2.8453 4.9282 0
    endloop
  endfacet
  facet normal 0 0 1
    outer loop
      vertex -20.3636 0 0
      vertex -4.5359 2 0
      vertex -10.1818 17.6354 0
    endloop
  endfacet
  facet normal 0 0 1
    outer loop
      vertex -2.8453 4.9282 0
      vertex -10.1818 17.6354 0
      vertex -4.5359 2 0
    endloop
  endfacet
  facet normal -0 0 1
    outer loop
      vertex -10.1818 17.6354 0
      vertex -2.8453 4.9282 0
      vertex 10.1818 17.6354 0
    endloop
  endfacet
  facet normal 0 0 1
    outer loop
      vertex 20.3636 0 0
      vertex 4.5359 -2 0
      vertex 10.1818 -17.6354 0
    endloop
  endfacet
  facet normal -0 0 1
    outer loop
      vertex 2.8453 -4.9282 0
      vertex 10.1818 -17.6354 0
      vertex 4.5359 -2 0
    endloop
  endfacet
  facet normal -0 0 1
    outer loop
      vertex -2.8453 -4.9282 0
      vertex 10.1818 -17.6354 0
      vertex 2.8453 -4.9282 0
    endloop
  endfacet
  facet normal 0 0 1
    outer loop
      vertex -2.8453 -4.9282 0
      vertex -10.1818 -17.6354 0
      vertex 10.1818 -17.6354 0
    endloop
  endfacet
  facet normal 0 0 1
    outer loop
      vertex -4.5359 -2 0
      vertex -10.1818 -17.6354 0
      vertex -2.8453 -4.9282 0
    endloop
  endfacet
  facet normal -0 0 1
    outer loop
      vertex -20.3636 0 0
      vertex -4.5359 -2 0
      vertex -5.6906 0 0
    endloop
  endfacet
  facet normal 0 0 1
    outer loop
      vertex -4.5359 2 0
      vertex -20.3636 0 0
      vertex -5.6906 0 0
    endloop
  endfacet
  facet normal 0 0 1
    outer loop
      vertex -4.5359 -2 0
      vertex -20.3636 0 0
      vertex -10.1818 -17.6354 0
    endloop
  endfacet
  facet normal 0 1 -0
    outer loop
      vertex 10.1818 -17.6354 0
      vertex -10.1818 -17.6354 3.8
      vertex 10.1818 -17.6354 3.8
    endloop
  endfacet
  facet normal 0 1 0
    outer loop
      vertex -10.1818 -17.6354 3.8
      vertex 10.1818 -17.6354 0
      vertex -10.1818 -17.6354 0
    endloop
  endfacet
  facet normal 0.866025 0.5 0
    outer loop
      vertex -10.1818 -17.6354 3.8
      vertex -20.3636 0 0
      vertex -20.3636 0 3.8
    endloop
  endfacet
  facet normal 0.866025 0.5 0
    outer loop
      vertex -20.3636 0 0
      vertex -10.1818 -17.6354 3.8
      vertex -10.1818 -17.6354 0
    endloop
  endfacet
  facet normal -0.774597 0.447213 0.447214
    outer loop
      vertex 4 0 -2.9282
      vertex 4.5359 -2 0
      vertex 5.6906 0 0
    endloop
  endfacet
  facet normal -0.774597 0.447213 0.447214
    outer loop
      vertex 4.5359 -2 0
      vertex 4 0 -2.9282
      vertex 2 -3.4641 -2.9282
    endloop
  endfacet
  facet normal 0 -0.894427 0.447214
    outer loop
      vertex -2 3.4641 -2.9282
      vertex 2.8453 4.9282 0
      vertex -2.8453 4.9282 0
    endloop
  endfacet
  facet normal 0 -0.894427 0.447214
    outer loop
      vertex 2.8453 4.9282 0
      vertex -2 3.4641 -2.9282
      vertex 2 3.4641 -2.9282
    endloop
  endfacet
  facet normal 0.774597 0.447214 0.447214
    outer loop
      vertex -2.8453 -4.9282 0
      vertex -2 -3.4641 -2.9282
      vertex -4.5359 -2 0
    endloop
  endfacet
  facet normal 0 0.894427 0.447214
    outer loop
      vertex 2 -3.4641 -2.9282
      vertex -2.8453 -4.9282 0
      vertex 2.8453 -4.9282 0
    endloop
  endfacet
  facet normal 0 0.894427 0.447214
    outer loop
      vertex -2.8453 -4.9282 0
      vertex 2 -3.4641 -2.9282
      vertex -2 -3.4641 -2.9282
    endloop
  endfacet
  facet normal -0.774597 0.447214 0.447214
    outer loop
      vertex 2.8453 -4.9282 0
      vertex 4.5359 -2 0
      vertex 2 -3.4641 -2.9282
    endloop
  endfacet
  facet normal -0.774597 -0.447214 0.447214
    outer loop
      vertex 4.5359 2 0
      vertex 2.8453 4.9282 0
      vertex 2 3.4641 -2.9282
    endloop
  endfacet
  facet normal -0.774597 -0.447213 0.447214
    outer loop
      vertex 4 0 -2.9282
      vertex 4.5359 2 0
      vertex 2 3.4641 -2.9282
    endloop
  endfacet
  facet normal -0.774597 -0.447213 0.447214
    outer loop
      vertex 4.5359 2 0
      vertex 4 0 -2.9282
      vertex 5.6906 0 0
    endloop
  endfacet
  facet normal 0.774597 0.447213 0.447214
    outer loop
      vertex -4.5359 -2 0
      vertex -4 0 -2.9282
      vertex -5.6906 0 0
    endloop
  endfacet
  facet normal 0.774597 0.447213 0.447214
    outer loop
      vertex -4 0 -2.9282
      vertex -4.5359 -2 0
      vertex -2 -3.4641 -2.9282
    endloop
  endfacet
  facet normal 0 0 1
    outer loop
      vertex 2 3.4641 -2.9282
      vertex 2 -3.4641 -2.9282
      vertex 4 0 -2.9282
    endloop
  endfacet
  facet normal -0 0 1
    outer loop
      vertex -2 3.4641 -2.9282
      vertex 2 -3.4641 -2.9282
      vertex 2 3.4641 -2.9282
    endloop
  endfacet
  facet normal 0 0 1
    outer loop
      vertex -2 3.4641 -2.9282
      vertex -2 -3.4641 -2.9282
      vertex 2 -3.4641 -2.9282
    endloop
  endfacet
  facet normal 0 -0 1
    outer loop
      vertex -2 -3.4641 -2.9282
      vertex -2 3.4641 -2.9282
      vertex -4 0 -2.9282
    endloop
  endfacet
  facet normal 0.774597 -0.447214 0.447214
    outer loop
      vertex -4 0 -2.9282
      vertex -4.5359 2 0
      vertex -5.6906 0 0
    endloop
  endfacet
  facet normal 0.774597 -0.447214 0.447214
    outer loop
      vertex -4.5359 2 0
      vertex -4 0 -2.9282
      vertex -2 3.4641 -2.9282
    endloop
  endfacet
  facet normal 0.774597 -0.447214 0.447214
    outer loop
      vertex -2 3.4641 -2.9282
      vertex -2.8453 4.9282 0
      vertex -4.5359 2 0
    endloop
  endfacet
endsolid OpenSCAD_Model
